{
  "label": "Bronie",
  "entries": {
    "Air Pistol": {
      "name": "Pistolet pneumatyczny",
      "description": "<p>An Exotic Medium Pistol. Fires Paintballs. If loaded with acid it is able to ablate armor by one with each hit. Refer to the full item description on pg. 347.</p>"
    },
    "Assault Rifle (Excellent)": {
      "name": "Karabin szturmowy (doskonałej jakości)",
      "description": "<p>Standardowy karabin szturmowy. +1 do ataku.</p>"
    },
    "Assault Rifle (Poor)": {
      "name": "Karabin szturmowy (słabej jakości)",
      "description": "<p>Standardowy karabin szturmowy. Przy krytycznej porażce broń zacina się i wymaga akcji do usunięcia usterki.</p>"
    },
    "Assault Rifle": {
      "name": "Karabin szturmowy",
      "description": "<p>Standardowy karabin szturmowy. </p>"
    },
    "Baseball Bat (Excellent)": {
      "name": "Kij bejsbolowy (doskonałej jakości)",
      "description": "<p>Obciążony kij. Ulubiona broń Baseball Furies. +1 do ataku.</p>"
    },
    "Baseball Bat (Poor)": {
      "name": "Kij bejsbolowy (słabej jakości)",
      "description": "<p>Obciążony kij. Ulubiona broń Baseball Furies. Przy krytycznej porażce broń uszkadza się w jakiś sposób i wymaga akcji do usunięcia usterki.</p>"
    },
    "Baseball Bat": {
      "name": "Kij bejsbolowy",
      "description": "<p>Obciążony kij. Ulubiona broń Baseball Furies.</p>"
    },
    "Bow (Excellent)": {
      "name": "Łuk (doskonałej jakości)",
      "description": "<p>A revitalized bow, reloaded as part of an Attack Action.</p>\n<p>+1 to Attack.</p>"
    },
    "Bow (Poor)": {
      "name": "Łuk (słabej jakości)",
      "description": "<p>Nowoczesny łuk, który musi być przeładowany po każdym ataku. Przy krytycznej porażce broń uszkadza się w jakiś sposób i wymaga akcji do usunięcia usterki.</p>"
    },
    "Bow": {
      "name": "Łuk",
      "description": "<p>A revitalized bow, reloaded as part of an Attack Action.</p>"
    },
    "Chainsaw (Excellent)": {
      "name": "Piła łańcuchowa (doskonałej jakości)",
      "description": "<p>Przenośna piła na CHOOH2. Cały zbiornik wystarcza na 2-3 godziny. +1 do ataku.</p>"
    },
    "Chainsaw (Poor)": {
      "name": "Piła łańcuchowa (słabej jakości)",
      "description": "<p>Przenośna piła na CHOOH2. Cały zbiornik wystarcza na 2-3 godziny. Przy krytycznej porażce broń uszkadza się w jakiś sposób i wymaga akcji do usunięcia usterki.</p>"
    },
    "Chainsaw": {
      "name": "Piła łańcuchowa",
      "description": "<p>Przenośna piła na CHOOH2. Cały zbiornik wystarcza na 2-3 godziny.</p>"
    },
    "Combat Knife (Excellent)": {
      "name": "Nóż bojowy (doskonałej jakości)",
      "description": "<p>Nóż pasujący na ulicę. +1 do ataku.</p>"
    },
    "Combat Knife (Poor)": {
      "name": "Nóż bojowy (słabej jakości)",
      "description": "<p>Nóż pasujący na ulicę. Przy krytycznej porażce broń uszkadza się w jakiś sposób i wymaga akcji do usunięcia usterki.</p>"
    },
    "Combat Knife": {
      "name": "Nóż bojowy",
      "description": "<p>Nóż pasujący na ulicę.</p>"
    },
    "Crossbow (Excellent)": {
      "name": "Kusza (doskonałej jakości)",
      "description": "<p>A crossbow, reloaded as part of an Attack Action.</p>\n<p>+1 to Attack.</p>"
    },
    "Crossbow (Poor)": {
      "name": "Kusza (słabej jakości)",
      "description": "<p>Kusza, którą trzeba przeładować po każdym ataku. Przy krytycznej porażce broń uszkadza się w jakiś sposób i wymaga akcji do usunięcia usterki.</p>"
    },
    "Crossbow": {
      "name": "Kusza",
      "description": "<p>A crossbow, reloaded as part of an Attack Action.</p>"
    },
    "Crowbar (Excellent)": {
      "name": "Łom (doskonałej jakości)",
      "description": "<p>Użyteczny jako narzędzie jak i broń. Stalowy pręt z rozdwojonymi klinami na końcach. +1 do ataku.</p>"
    },
    "Crowbar (Poor)": {
      "name": "Łom (słabej jakości)",
      "description": "<p>Użyteczny jako narzędzie jak i broń. Stalowy pręt z rozdwojonymi klinami na końcach. Przy krytycznej porażce broń uszkadza się w jakiś sposób i wymaga akcji do usunięcia usterki.</p>"
    },
    "Crowbar": {
      "name": "Łom",
      "description": "<p>Użyteczny jako narzędzie jak i broń. Stalowy pręt z rozdwojonymi klinami na końcach.</p>"
    },
    "Dartgun": {
      "name": "Pistolet strzałkowy",
      "description": "<p>Egzotyczny bardzo ciężki pistolet. Pełny opis przedmiotu na stronie 348.</p>"
    },
    "EMG-86 Railgun": {
      "name": "EMG-86 Railgun",
      "description": "<p>An Exotic Assault Rifle. It cannot make Aimed or Autofire Shots. Requires BODY 11 or higher (unless mounted). Ignores any armor below SP11*. Refer to the full item description on pg. 349.</p>\n<p><em>*Not currently supported to will need to manually apply damage to armoured targets</em></p>"
    },
    "Flamethrower": {
      "name": "Miotacz ognia",
      "description": "<p>An Exotic Shotgun that uses the Heavy Weapons Skill. Refer to the full item description on pg. 348.</p>"
    },
    "Grenade Launcher (Excellent)": {
      "name": "Granatnik (doskonałej jakości)",
      "description": "<p>Granatnik o dużym zasięgu działania. Można wystrzelić dużą różnorodność granatów. +1 do ataku.</p>"
    },
    "Grenade Launcher (Poor)": {
      "name": "Granatnik (słabej jakości)",
      "description": "<p>Granatnik o dużym zasięgu działania. Można wystrzelić dużą różnorodność granatów. Przy krytycznej porażce broń zacina się i wymaga akcji do usunięcia usterki.</p>"
    },
    "Grenade Launcher": {
      "name": "Granatnik",
      "description": "<p>Granatnik o dużym zasięgu działania. Można wystrzelić dużą różnorodność granatów.</p>"
    },
    "Heavy Melee (Excellent)": {
      "name": "Duża broń Biała (Doskonałej jakości)",
      "description": "<p>Generic Excellent Quality Heavy Melee Weapon.</p>\n<p>+1 to Attack.</p>"
    },
    "Heavy Melee (Poor)": {
      "name": "Duża broń Biała (Słabej jakości)",
      "description": "<p>Generic Poor Quality Heavy Melee Weapon.</p>\n<p>If you roll 1 on Attack (Crit Fail) the weapon fails in some way and requires an action to be made usable again.</p>\n<p>&nbsp;</p>"
    },
    "Heavy Melee": {
      "name": "Duża Broń Biała",
      "description": "<p>Generic Heavy Melee Weapon.</p>"
    },
    "Heavy Pistol (Excellent)": {
      "name": "Ciężki pistolet (doskonałej jakości)",
      "description": "<p>Ciężki pistolet. Nadający się do ukrycia. +1 do ataku.</p>"
    },
    "Heavy Pistol (Poor)": {
      "name": "Ciężki pistolet (słabej jakości)",
      "description": "<p>Ciężki pistolet. Nadający się do ukrycia. Przy krytycznej porażce broń zacina się i wymaga akcji do usunięcia usterki.</p>"
    },
    "Heavy Pistol": {
      "name": "Ciężki pistolet",
      "description": "<p>Ciężki pistolet. Nadający się do ukrycia.</p>"
    },
    "Heavy SMG (Excellent)": {
      "name": "Ciężki pistolet maszynowy (doskonałej jakości)",
      "description": "<p>Ciężki pistolet maszynowy. Ze względu na jego rozmiar nie można go ukryć. +1 do ataku.</p>"
    },
    "Heavy SMG (Poor)": {
      "name": "Ciężki pistolet maszynowy (słabej jakości)",
      "description": "<p>Ciężki pistolet maszynowy. Ze względu na jego rozmiar nie można go ukryć. Przy krytycznej porażce broń zacina się i wymaga akcji do usunięcia usterki.</p>"
    },
    "Heavy SMG": {
      "name": "Ciężki pistolet maszynowy",
      "description": "<p>Ciężki pistolet maszynowy. Ze względu na jego rozmiar nie można go ukryć. </p>"
    },
    "Helicopter Blades (Excellent)": {
      "name": "Łopata helikoptera (doskonałej jakości)",
      "description": "<p>Część starego helikoptera. Te łopaty przetną się przez większość rzeczy jak przez masło. +1 do ataku.</p>"
    },
    "Helicopter Blades (Poor)": {
      "name": "Łopata helikoptera (słabej jakości)",
      "description": "<p>Część starego helikoptera. Te łopaty przetną się przez większość rzeczy jak przez masło. Przy krytycznej porażce broń uszkadza się w jakiś sposób i wymaga akcji do usunięcia usterki.</p>"
    },
    "Helicopter Blades": {
      "name": "Łopata helikoptera",
      "description": "<p>Część starego helikoptera. Te łopaty przetną się przez większość rzeczy jak przez masło.</p>"
    },
    "Helix": {
      "name": "Helix",
      "description": "<p>An Exotic Assault Rifle that uses only Autofire. Holds 40 bullets, using 20 bullets with each attack. Uses Autofire rules with a multiplication up to a maximum of 5. Requires BODY 11 or higher (unless mounted). Refer to the full item description on pg. 349.</p>"
    },
    "Hurricane Assault Weapon": {
      "name": "Hurricane Assault Weapon",
      "description": "<p>An Exotic Shotgun with 2 ROF. Cannot make aimed shots and needs BODY 11 or higher (unless mounted). Refer to the full item description on pg. 348.</p>"
    },
    "Lead Pipe (Excellent)": {
      "name": "Gazrurka (doskonałej jakości)",
      "description": "<p>Pusta rurka, przeważnie z metalu lub włókna szklanego. +1 do ataku.</p>"
    },
    "Lead Pipe (Poor)": {
      "name": "Gazrurka (słabej jakości)",
      "description": "<p>A hollow cylinder, typically made of metal or fiberglass. It may have conveyed fluids once. If you roll 1 on Attack (Crit Fail) the weapon fails in some way and requires an action to be made usable again.</p>"
    },
    "Lead Pipe": {
      "name": "Gazrurka",
      "description": "<p>Pusta rurka, przeważnie z metalu lub włókna szklanego.</p>"
    },
    "Light Melee (Excellent)": {
      "name": "Lekka broń Biała (Doskonałej jakości)",
      "description": "<p>Generic Excellent Qulaity Light Melee weapon.</p>\n<p>+1 to Attack.</p>"
    },
    "Light Melee (Poor)": {
      "name": "Lekka broń Biała (Słabej jakości)",
      "description": "<p>Generic Poor Quality Light Melee weapon.</p>\n<p>If you roll 1 on Attack (Crit Fail) the weapon fails in some way and requires an action to be made usable again.</p>"
    },
    "Light Melee": {
      "name": "Lekka Broń Biała",
      "description": "<p>Generic Light Melee weapon.</p>"
    },
    "Machete (Excellent)": {
      "name": "Maczeta (doskonałej jakości)",
      "description": "<p>Nóż o wyjątkowo długim ostrzu o wielu zastosowaniach. Ulubienica niektórych gangów Night City. +1 do ataku.</p>"
    },
    "Machete (Poor)": {
      "name": "Maczeta (słabej jakości)",
      "description": "<p>Nóż o wyjątkowo długim ostrzu o wielu zastosowaniach. Ulubienica niektórych gangów Night City. Przy krytycznej porażce broń uszkadza się w jakiś sposób i wymaga akcji do usunięcia usterki.</p>"
    },
    "Machete": {
      "name": "Maczeta",
      "description": "<p>Nóż o wyjątkowo długim ostrzu o wielu zastosowaniach. Ulubienica niektórych gangów Night City.</p>"
    },
    "Malorian Arms 3516": {
      "name": "Malorian Arms 3516",
      "description": "<p>An Exotic, Excellent Quality Very Heavy Pistol. Comes with a Smartgun Link* that must be used. Refer to the full item description on pg. 348.</p>\n<p><em>*Must be manually added after acquiring the weapon</em></p>"
    },
    "Martial Arts": {
      "name": "Sztuki walki",
      "description": "<p>Puste łapy. Nie ignoruje połowy pancerza.</p>"
    },
    "Medium Melee (Excellent)": {
      "name": "Średnia broń Biała (Doskonałej jakości)",
      "description": "<p>Generic Excellent Quality Medium Melee Weapon.</p>\n<p>+1 to Attack.</p>"
    },
    "Medium Melee (Poor)": {
      "name": "Średnia broń Biała (Słabej jakości)",
      "description": "<p>Generic Poor Quality Medium Melee Weapon.</p>\n<p>If you roll 1 on Attack (Crit Fail) the weapon fails in some way and requires an action to be made usable again.</p>"
    },
    "Medium Melee": {
      "name": "Średnia Broń Biała",
      "description": "<p>Generic Medium Melee Weapon.</p>"
    },
    "Medium Pistol (Excellent)": {
      "name": "Średni pistolet (doskonałej jakości)",
      "description": "<p>Średni pistolet. Nadający się do ukrycia. +1 do ataku.</p>"
    },
    "Medium Pistol (Poor)": {
      "name": "Średni pistolet (słabej jakości)",
      "description": "<p>Średni pistolet. Nadający się do ukrycia. Przy krytycznej porażce broń zacina się i wymaga akcji do usunięcia usterki.</p>"
    },
    "Medium Pistol": {
      "name": "Średni pistolet",
      "description": "<p>Średni pistolet. Nadający się do ukrycia.</p>"
    },
    "Microwaver": {
      "name": "Pistolet mikrofalowy",
      "description": "<p>An Exotic Very Heavy Pistol. Causes cyberware or electrical components to be rendered inoperable for a minute unless the target passes a DV15 Cybertech Check. Refer to the full item description on pg. 348.</p>"
    },
    "Mono-Three": {
      "name": "Mono-Three",
      "description": "<p>An Exotic, Excellent Quality, Two-Handed Very Heavy Melee Weapon. It appears as a high-tech katana, able to ignore any armor below SP11*. Refer to the full item description on pg. 348.</p>\n<p><em>*Not currently supported to will need to manually apply damage to armoured targets</em></p>"
    },
    "Naginata (Excellent)": {
      "name": "Naginata (doskonałej jakości)",
      "description": "<p>Japońska broń drzewcowa zakończona zagiętym ostrzem z jednej strony. Ulubiona broń do starć na bliskim zasięgu drużyn taktycznych Arasaki. +1 do ataku.</p>"
    },
    "Naginata (Poor)": {
      "name": "Naginata (słabej jakości)",
      "description": "<p>Japońska broń drzewcowa zakończona zagiętym ostrzem z jednej strony. Ulubiona broń do starć na bliskim zasięgu drużyn taktycznych Arasaki. Przy krytycznej porażce broń uszkadza się w jakiś sposób i wymaga akcji do usunięcia usterki.</p>"
    },
    "Naginata": {
      "name": "Naginata",
      "description": "<p>Japońska broń drzewcowa zakończona zagiętym ostrzem z jednej strony. Ulubiona broń do starć na bliskim zasięgu drużyn taktycznych Arasaki.</p>"
    },
    "Rippers": {
      "name": "Rozpruwacze",
      "description": "<p>Cyberbroń. Musisz mieć zainstalowaną odpowiednią cyborgizację.</p>"
    },
    "Rocket Launcher (Excellent)": {
      "name": "Wyrzutnia rakiet (doskonałej jakości)",
      "description": "<p>Wytoczyć duże działa. Ta wyrzutnia rakiet zada trochę obrażeń. +1 do ataku.</p>"
    },
    "Rocket Launcher (Poor)": {
      "name": "Wyrzutnia rakiet (słabej jakości)",
      "description": "<p>Wytoczyć duże działa. Ta wyrzutnia rakiet zada trochę obrażeń. Przy krytycznej porażce broń zacina się i wymaga akcji do usunięcia usterki.</p>"
    },
    "Rocket Launcher": {
      "name": "Wyrzutnia rakiet",
      "description": "<p>Wytoczyć duże działa. Ta wyrzutnia rakiet zada trochę obrażeń.</p>"
    },
    "Shotgun (Excellent)": {
      "name": "Strzelba (doskonałej jakości)",
      "description": "<p>Wielozadaniowa strzelba. +1 do ataku.</p>"
    },
    "Shotgun (Poor)": {
      "name": "Strzelba (słabej jakości)",
      "description": "<p>Wielozadaniowa strzelba. Przy krytycznej porażce broń zacina się i wymaga akcji do usunięcia usterki.</p>"
    },
    "Shotgun": {
      "name": "Strzelba",
      "description": "<p>Wielozadaniowa strzelba.</p>"
    },
    "Shrieker": {
      "name": "Wrzaskun",
      "description": "<p>An Exotic Very Heavy Pistol. Requires ear protection to prevent Damaged Ear critical injuries. The target must beat a DV15 Resist Torture/Drugs Check or suffer the Damaged Ear critical injury. Refer to the full item description on pg. 349.</p>"
    },
    "Sledgehammer (Excellent)": {
      "name": "Młot (doskonałej jakości)",
      "description": "<p>Duży młot. Nic skomplikowanego. +1 do ataku.</p>"
    },
    "Sledgehammer (Poor)": {
      "name": "Młot (słabej jakości)",
      "description": "<p>Duży młot. Nic skomplikowanego. Przy krytycznej porażce broń uszkadza się w jakiś sposób i wymaga akcji do usunięcia usterki.</p>"
    },
    "Sledgehammer": {
      "name": "Młot",
      "description": "<p>Duży młot. Nic skomplikowanego.</p>"
    },
    "SMG (Excellent)": {
      "name": "Pistolet maszynowy (doskonałej jakości)",
      "description": "<p>Pistolet maszynowy możliwy do ukrycia. +1 do ataku.</p>"
    },
    "SMG (Poor)": {
      "name": "Pistolet maszynowy (słabej jakości)",
      "description": "<p>Pistolet maszynowy możliwy do ukrycia. Przy krytycznej porażce broń zacina się i wymaga akcji do usunięcia usterki.</p>"
    },
    "SMG": {
      "name": "Pistolet maszynowy",
      "description": "<p>Pistolet maszynowy możliwy do ukrycia.</p>"
    },
    "Sniper Rifle (Excellent)": {
      "name": "Karabin snajperski (doskonałej jakości)",
      "description": "<p>Daleko zasięgowy karabin snajperski. 4 naboje w magazynku. +1 do ataku.</p>"
    },
    "Sniper Rifle (Poor)": {
      "name": "Karabin snajperski (słabej jakości)",
      "description": "<p>Daleko zasięgowy karabin snajperski. 4 naboje w magazynku. Przy krytycznej porażce broń zacina się i wymaga akcji do usunięcia usterki.</p>"
    },
    "Sniper Rifle": {
      "name": "Karabin snajperski",
      "description": "<p>Daleko zasięgowy karabin snajperski. 4 naboje w magazynku.</p>"
    },
    "Spiked Bat (Excellent)": {
      "name": "Nabijana kolcami pała (doskonałej jakości)",
      "description": "<p>Ulepszony kij bejsbolowy. Wiele wystających gwoździ na końcu kija. +1 do ataku.</p>"
    },
    "Spiked Bat (Poor)": {
      "name": "Nabijana kolcami pała (słabej jakości)",
      "description": "<p>Ulepszony kij bejsbolowy. Wiele wystających gwoździ na końcu kija. Przy krytycznej porażce broń uszkadza się w jakiś sposób i wymaga akcji do usunięcia usterki.</p>"
    },
    "Spiked Bat": {
      "name": "Nabijana kolcami pała",
      "description": "<p>Ulepszony kij bejsbolowy. Wiele wystających gwoździ na końcu kija.</p>"
    },
    "Stun Baton": {
      "name": "Pałka ogłuszająca",
      "description": "<p>Egzotyczna, jednoręczna średnia broń biała. Cel traci przytomność jeśli obrażenia zredukują jego PW poniżej 1. Nie powoduje ran krytycznych ani nie uszkadza pancerza. Pełny opis przedmiotu na stronie 349.</p>"
    },
    "Stun Gun": {
      "name": "Pistolet ogłuszający",
      "description": "<p>An Exotic Heavy Pistol. Target is knocked unconscious if damage dealt would reduce them to under 1 HP. Doesn't cause Critical Injuries or ablate armor. Refer to the full item description on pg. 349.</p>"
    },
    "Sword (Excellent)": {
      "name": "Miecz (doskonałej jakości)",
      "description": "<p>Standardowy miecz. +1 do ataku.</p>"
    },
    "Sword (Poor)": {
      "name": "Miecz (słabej jakości)",
      "description": "<p>Standardowy miecz. Przy krytycznej porażce broń uszkadza się w jakiś sposób i wymaga akcji do usunięcia usterki.</p>"
    },
    "Sword": {
      "name": "Miecz",
      "description": "<p>Standardowy miecz.</p>"
    },
    "Thrown Weapon": {
      "name": "Thrown Weapon",
      "description": "<p>A basic lob or pitch of an object. Use an Action to make a Ranged Attack at up to 25m/yds. Targets can choose to Dodge your throw if they can Dodge bullets. Melee weapons deal their base damage, but don't penetrate half SP.</p>"
    },
    "Tomahawk (Excellent)": {
      "name": "Tomahawk (doskonałej jakości)",
      "description": "<p>Lekki toporek do rzucania. +1 do ataku.</p>"
    },
    "Tomahawk (Poor)": {
      "name": "Tomahawk (słabej jakości)",
      "description": "<p>Lekki toporek do rzucania. Przy krytycznej porażce broń uszkadza się w jakiś sposób i wymaga akcji do usunięcia usterki.\n</p>"
    },
    "Tomahawk": {
      "name": "Tomahawk",
      "description": "<p>Lekki toporek do rzucania.</p>"
    },
    "U-56 Grenade Launcher \"Cowboy\"": {
      "name": "U-56 Grenade Launcher \"Cowboy\"",
      "description": "<p>An Exotic Grenade Launcher with 2 ROF. Holds four grenades. Requires BODY 11 or higher (unless mounted). Refer to the full item description on pg. 349.</p>"
    },
    "Unarmed": {
      "name": "Gołe pięści",
      "description": "<p>Puste łapy. Nie ignoruje połowy pancerza.</p>"
    },
    "Very Heavy Melee (Excellent)": {
      "name": "Bardzo Duża broń Biała (Doskonałej jakości)",
      "description": "<p>Generic Excellent Quality Very Heavy Melee Weapon.</p>\n<p>+1 to Attack.</p>"
    },
    "Very Heavy Melee (Poor)": {
      "name": "Bardzo Duża broń Biała (Słabej jakości)",
      "description": "<p>Generic Poor Quality Very Heavy Melee Weapon.</p>\n<p>If you roll 1 on Attack (Crit Fail) the weapon fails in some way and requires an action to be made usable again.</p>"
    },
    "Very Heavy Melee": {
      "name": "Bardzo Duża Broń Biała",
      "description": "<p>Generic Very Heavy Melee Weapon.</p>"
    },
    "Very Heavy Pistol (Excellent)": {
      "name": "Bardzo ciężki pistolet (doskonałej jakości)",
      "description": "<p>Bardzo ciężki pistolet. Nie można go ukryć. +1 do ataku.</p>"
    },
    "Very Heavy Pistol (Poor)": {
      "name": "Bardzo ciężki pistolet (słabej jakości)",
      "description": "<p>Bardzo ciężki pistolet. Nie można go ukryć. Przy krytycznej porażce broń zacina się i wymaga akcji do usunięcia usterki.</p>"
    },
    "Very Heavy Pistol": {
      "name": "Bardzo ciężki pistolet",
      "description": "<p>Bardzo ciężki pistolet. Nie można go ukryć. </p>"
    }
  }
}