{
  "label": "The 12 Days of Cybermas",
  "entries": {
    "MagnaSlot BatteryBrick": {
      "name": "MagnaSlot BatteryBrick",
      "description": "<p>Battery pack that only fits the Radline Blitzkrieg Arc-Thrower Cyberarm. Can be recharged in 1 hour.</p>"
    },
    "FleshWeave (Armor)": {
      "name": "FleshWeave (Armor)",
      "description": "<p>Armor Item for Sycust FleshWeave Cyberware.</p>"
    },
    "Blitzkrieg Arc-Thrower Cyberarm": {
      "name": "Blitzkrieg Arc-Thrower Cyberarm",
      "description": "<p>An &ldquo;arm&rdquo; in name only, the Arc-Thrower is a massive electricity cannon. 0 option slots.</p>\n<p>The Arc-Thrower is One-Handed Exotic Poor Quality Shotgun that uses Heavy Weapons Skill. Fires &ldquo;Shotgun Shell&rdquo; electricity blast with 4d6 damage. Critical Injuries are not possible. Armor is not ablated. If target goes under 1HP from the blast, target has 1HP and is Unconscious.</p>\n<p>Firing the Arc-Thrower consumes a charge from the included Radline MagnaSlot BatteryBrick (100eb). BatteryBrick has a 32 shot capacity and can be recharged in 1 hour. Use an Action to swap in a fresh battery pack even if user has no free hands available. Arc-Thrower does not have a hand attachment.</p>"
    },
    "Bug Eye": {
      "name": "Bug Eye",
      "description": "<p>Large insectoid Cybereye packed with option slots. Borgware.</p>"
    },
    "ChainRipp": {
      "name": "ChainRipp",
      "description": "<p>A popout Cyberarm chainsaw with integreated exhaust port. Can be deployed and retracted without an Action. User can not use the hand on the ChainRipp's Cyberarm when blade is drawn.</p>\n<p>When deployed, ChainRipp can be revved as an Action and qualifies as an Excellent Quality One-Handed Exotic Very Heavy Melee Weapon. ChainRipp remains revved until deactivated as an Action.</p>\n<p>In the deployed but un-revved state, the ChainRipp is a One-Handed Very Heavy Melee Weapon.</p>"
    },
    "DeathTrance": {
      "name": "DeathTrance",
      "description": "<p>Activate as an action to impede signs of life such as heart rate and breathing. To the casual observer, the user appears to be dead. -4 to all Actions in this lethargic state. Can be disabled with an Action. User may experience bluish or pale skin from multiple uses.</p>\n<p>DV17 Medical Tech or DV21 (Criminology, Deduction, Perception) Check to discover user is not actually dead.</p>"
    },
    "FleshWeave": {
      "name": "FleshWeave",
      "description": "<p>External Body Cyberware*. 7 SP for head and body.<br>Skinweave armor with advanced self-healing functionality. Billions of nanobots repair all damage to FleshWeave(body and head) armor after 10 minutes of rest. Armor does not stack.</p>\n<p><em>* Cyberware Armor does not function as armor in the system, please add the \"Sycust FleshWeave (Armor)\" item to the character/mook to track</em></p>"
    },
    "Gang Jazzler": {
      "name": "Gang Jazzler",
      "description": "<p>Use a Choke Action to stab a grappled target with a popout electrified needle. The target takes no damage but must make a DV13 Resist Torture/Drugs Check. On failed check, target falls Unconscious for 1 minute.</p>\n<p>Powered by a rechargeable battery pack (50eb). Battery pack must be recharged for 1 hour after each use. No check is necessary to conceal Gang Jazzler and battery pack. Can be installed in meat arm if it&rsquo;s the only piece of cyberware in that arm.</p>"
    },
    "MicroWaldo": {
      "name": "MicroWaldo",
      "description": "<p>A wrist-mounted collection of instruments and probes to facilitate surgery.<br>+1 to Medtech Surgery Checks.&nbsp;</p>\n<p>Takes up 1 Cyberarm Option slot and 1 Neural Link Option slot.</p>"
    },
    "MonoVision": {
      "name": "MonoVision",
      "description": "<p dir=\"ltr\">Single-optic Cybereye visor that takes the place of two meat eyes. Too large for a MultiOptic Mount.&nbsp;</p>\n<p dir=\"ltr\">Cybereye Options are always &ldquo;paired&rdquo; even if there is only one of each type. Penalties from Lost Eye Critical Injury are doubled if the target solely relies on the Monovision for sight.</p>\n<p>Borgware.</p>"
    },
    "OptiShield": {
      "name": "OptiShield",
      "description": "<p>Embedded retractable Mirrorshades. When activated as an Action, user is immune to negative effects of bright light, such as from flashbangs.</p>"
    },
    "Poser Chip": {
      "name": "Poser Chip",
      "description": "<p>Chipware. Allows User to effortlessly mimic speech patterns and mannerisms of a pre-programmed personality. Standard-issue Cyberware for Poser Gangs.</p>\n<ul>\n<li>+4 to Acting Checks when imitating that specific personality.</li>\n<li>+5 to Acting Checks with convincing Roleplay.</li>\n</ul>\n<p>Poser Chips programmed with countless hours of celebrity footage cost 500eb. More personalized Poser Chips programmed with 10+ hours of footage of a private individual cost 1000eb.</p>"
    },
    "Romanova Cyberlegs": {
      "name": "Romanova Cyberlegs",
      "description": "<p>High fashion Cyberlegs with integrated Talon Foot blades in each heel. Blades can not be removed.</p>\n<p>Paired Cyberlegs, 1000eb for both legs. Each leg has 3 slots for Cyberleg or Cyberlimb Options. Roll Humanity Loss once for the pair of legs. Each leg can suffer separate Critical Injuries and must be repaired individually.</p>"
    },
    "Watch-Man": {
      "name": "Watch-Man",
      "description": "<p dir=\"ltr\">Internal Agent with retractable screen on the user&rsquo;s forearm. Requires a Cyberarm.</p>"
    }
  }
}