{
  "label": "Exotiques de 2045",
  "entries": {
    "Appetite Controller": {
      "name": "Contrôleur d'appétit",
      "description": "<p>Supprime la réponse à la faim. L'utilisateur ignore les pénalités de perte d'Humanité dues à un traumatisme de famine mais l'utilisateur peut encore mourir de faim. Lancez une sauvegarde contre la mort au début de la 7e journée consécutive sans manger. +1 aux sauvegardes successives contre la Mort par la suite.</p>\n<p>Nécessite un Biomoniteur.</p>"
    },
    "Combat Jaw": {
      "name": "Mâchoire de combat",
      "description": "<p>Arme de mêlée très lourde implantée.</p>\n<p>Se référer à la description complète à la page 72 de lnterface Red vol. 2.</p>"
    },
    "Combat Tail": {
      "name": "Queue de combat",
      "description": "<p>Arme de mêlée lourde implantée. Nécessite un lien neural.</p>\n<p>Se référer à la description complète à la page 72 de Interface Red vol. 2.</p>"
    },
    "Extra-Jointed Cyberarm Upgrade": {
      "name": "Amélioration de cyberbras Extra-articulation",
      "description": "<p>Améliore les articulations de cyberbras. Contorsion +2. (Voir Black Chrome p. 18 pour plus de détails)</p>"
    },
    "Extra-Jointed Cyberleg Upgrade": {
      "name": "Amélioration de cyberjambe Extra-articulation",
      "description": "<p>Améliore les articulations de cyberjambe. Contorsion +2. (Voir Black Chrome p. 18 pour plus de détails)</p>"
    },
    "Firebreather": {
      "name": "Souffle de feu",
      "description": "<p>Fusil à pompe exotique implanté. Ne peux contenir qu'une seule cartouche de fusil à pompe chevrotine incendiaire. </p>\n<p>Référez-vous à la description complète à la page 73 de Interface Red vol. 2.</p>"
    },
    "Heuristic Health Monitor": {
      "name": "Moniteur Heuristique de Santé",
      "description": "<p>Nécessite un biomoniteur. Pour voir les PS en un coup d'œil. (Voir Black Chrome p. 19 pour plus de détails)</p>"
    },
    "NeuTongue": {
      "name": "NovLangue",
      "description": "<p>Simule les sensations de saveur. Utilise un Agent lié pour personnaliser les profils de saveurs. Peut être désactivé sans Action. Aucun sens du goût lorsqu'il est désactivé.</p>\n<p>Remplace la langue de chair.</p>"
    },
    "Reflex Co-Processor": {
      "name": "Coprocesseur de Réflexe",
      "description": "<p>Neuromatériel. Permet l'esquive des balles indépendamment des REF . (Voir Black Chrome pg. 21 pour plus de détails)</p>"
    }
  }
}