{
  "label": "Micro Chrome",
  "entries": {
    "Superflash Jacket": {
      "name": "Veste Superflash",
      "description": "<p>Une belle veste portant une surprise ; en utilisant une action, toute personne portant cette veste peut consommer une batterie pour émettre une lumière aveuglante. Les règles complètes peuvent être trouvées dans Micro Chrome sur la page 1.</p>"
    },
    "Chipware Compartment": {
      "name": "Compartiment de Puces",
      "description": "<p>Vous permet de cacher jusqu'à puces, sans jet de compétence. Des règles complètes peuvent être trouvées dans Micro Chrome sur la page 1.</p>"
    },
    "Smart Lens": {
      "name": "Lentille intelligente",
      "description": "<p>Donne à un utilisateur une seule option de Cyberoeil Peut utiliser une lentille intelligente par œil.</p>"
    },
    "MicroCutie": {
      "name": "MicroCutie",
      "description": "<p>Un pistolet d'excellente qualité avec un mode de tir unique HypurrburstMC. L'arme ronronne lorsqu'elle est utilisée. Les règles complètes peuvent être trouvées dans Micro Chrome sur la page 1.</p>\n<p><br><em>Mode de tir spécial non pris en charge ; devra être appliqué manuellement</em></p>"
    }
  }
}