{
  "label": "Skills (Core) - DO NOT USE",
  "entries": {
    "Accounting": {
      "name": "Accounting",
      "description": ""
    },
    "Acting": {
      "name": "Acting",
      "description": ""
    },
    "Air Vehicle Tech": {
      "name": "Air Vehicle Tech",
      "description": ""
    },
    "Animal Handling": {
      "name": "Animal Handling",
      "description": ""
    },
    "Archery": {
      "name": "Archery",
      "description": ""
    },
    "Athletics": {
      "name": "Athletics",
      "description": ""
    },
    "Autofire": {
      "name": "Autofire",
      "description": ""
    },
    "Basic Tech": {
      "name": "Basic Tech",
      "description": ""
    },
    "Brawling": {
      "name": "Brawling",
      "description": ""
    },
    "Bribery": {
      "name": "Bribery",
      "description": ""
    },
    "Bureaucracy": {
      "name": "Bureaucracy",
      "description": ""
    },
    "Business": {
      "name": "Business",
      "description": ""
    },
    "Composition": {
      "name": "Composition",
      "description": ""
    },
    "Conceal/Reveal Object": {
      "name": "Conceal/Reveal Object",
      "description": ""
    },
    "Concentration": {
      "name": "Concentration",
      "description": ""
    },
    "Contortionist": {
      "name": "Contortionist",
      "description": ""
    },
    "Conversation": {
      "name": "Conversation",
      "description": ""
    },
    "Criminology": {
      "name": "Criminology",
      "description": ""
    },
    "Cryptography": {
      "name": "Cryptography",
      "description": ""
    },
    "Cybertech": {
      "name": "Cybertech",
      "description": ""
    },
    "Dance": {
      "name": "Dance",
      "description": ""
    },
    "Deduction": {
      "name": "Deduction",
      "description": ""
    },
    "Demolitions": {
      "name": "Demolitions",
      "description": ""
    },
    "Drive Land Vehicle": {
      "name": "Drive Land Vehicle",
      "description": ""
    },
    "Education": {
      "name": "Education",
      "description": ""
    },
    "Electronics/Security Tech": {
      "name": "Electronics/Security Tech",
      "description": ""
    },
    "Endurance": {
      "name": "Endurance",
      "description": ""
    },
    "Evasion": {
      "name": "Evasion",
      "description": ""
    },
    "First Aid": {
      "name": "First Aid",
      "description": ""
    },
    "Forgery": {
      "name": "Forgery",
      "description": ""
    },
    "Gamble": {
      "name": "Gamble",
      "description": ""
    },
    "Handgun": {
      "name": "Handgun",
      "description": ""
    },
    "Heavy Weapons": {
      "name": "Heavy Weapons",
      "description": ""
    },
    "Human Perception": {
      "name": "Human Perception",
      "description": ""
    },
    "Interrogation": {
      "name": "Interrogation",
      "description": ""
    },
    "Land Vehicle Tech": {
      "name": "Land Vehicle Tech",
      "description": ""
    },
    "Language (Streetslang)": {
      "name": "Language (Streetslang)",
      "description": ""
    },
    "Library Search": {
      "name": "Library Search",
      "description": ""
    },
    "Lip Reading": {
      "name": "Lip Reading",
      "description": ""
    },
    "Local Expert": {
      "name": "Local Expert",
      "description": ""
    },
    "Martial Arts": {
      "name": "Martial Arts",
      "description": ""
    },
    "Melee Weapon": {
      "name": "Melee Weapon",
      "description": ""
    },
    "Paint/Draw/Sculpt": {
      "name": "Paint/Draw/Sculpt",
      "description": ""
    },
    "Paramedic": {
      "name": "Paramedic",
      "description": ""
    },
    "Perception": {
      "name": "Perception",
      "description": ""
    },
    "Personal Grooming": {
      "name": "Personal Grooming",
      "description": ""
    },
    "Persuasion": {
      "name": "Persuasion",
      "description": ""
    },
    "Photography/Film": {
      "name": "Photography/Film",
      "description": ""
    },
    "Pick Lock": {
      "name": "Pick Lock",
      "description": ""
    },
    "Pick Pocket": {
      "name": "Pick Pocket",
      "description": ""
    },
    "Pilot Air Vehicle": {
      "name": "Pilot Air Vehicle",
      "description": ""
    },
    "Pilot Sea Vehicle": {
      "name": "Pilot Sea Vehicle",
      "description": ""
    },
    "Play Instrument": {
      "name": "Play Instrument",
      "description": ""
    },
    "Resist Torture/Drugs": {
      "name": "Resist Torture/Drugs",
      "description": ""
    },
    "Riding": {
      "name": "Riding",
      "description": ""
    },
    "Science": {
      "name": "Science",
      "description": ""
    },
    "Sea Vehicle Tech": {
      "name": "Sea Vehicle Tech",
      "description": ""
    },
    "Shoulder Arms": {
      "name": "Shoulder Arms",
      "description": ""
    },
    "Stealth": {
      "name": "Stealth",
      "description": ""
    },
    "Streetwise": {
      "name": "Streetwise",
      "description": ""
    },
    "Tactics": {
      "name": "Tactics",
      "description": ""
    },
    "Tracking": {
      "name": "Tracking",
      "description": ""
    },
    "Trading": {
      "name": "Trading",
      "description": ""
    },
    "Wardrobe & Style": {
      "name": "Wardrobe & Style",
      "description": ""
    },
    "Weaponstech": {
      "name": "Weaponstech",
      "description": ""
    },
    "Wilderness Survival": {
      "name": "Wilderness Survival",
      "description": ""
    }
  }
}